
  ╔════════════════════════╗
  ║                        ║
  ║           PPP          ║
  ║                        ║
  ║                        ║
  ║        Denoninck       ║
  ║                        ║
  ║                        ║
  ║       Achat : 280      ║
  ║         ID : 29        ║
  ║                        ║
  ╚════════════════════════╝
