	%@@@@@@@@@@@@@@@@@@@@@@@@@@@@@@@@@@@@@@@@@@@@@@@@@@@@@@@@@@@@@@@@@@@@@@@@@@@@@@@@@@@@@@@@@%
       &&&&&&&&&&&&&&&&&&&&&&&&&&&&&&&&&&&&&&&&&&&&&&&&&&&&&&&&&&&&&&&&&&&&&&&&&&&&&&&&&&&&&&&&&&&&&
      @&&&       #       #       #       #       #       #       #       #       #       #       &&&@
      @&&&       #       #       #       #       #       #       #       #       #       #       &&&@
      @&&&       #       #       #       #       #       #       #       #       #       #       &&&@
      @&&&#######################################################################################&&&@
      @&&&       #                                                                       #       &&&@
      @&&&       #                                                                       #       &&&@
      @&&&       #                                                                       #       &&&@
      @&&&########                                                                       ########&&&@
      @&&&       #                                                                       #       &&&@
      @&&&       #                                                                       #       &&&@
      @&&&       #                                                                       #       &&&@
      @&&&########                                                                       ########&&&@
      @&&&       #                                                                       #       &&&@
      @&&&       #                                                                       #       &&&@
      @&&&       #                                                                       #       &&&@
      @&&&########                                                                       ########&&&@
      @&&&       #                                                                       #       &&&@
      @&&&       #                                                                       #       &&&@
      @&&&       #        __  __                               _   ___ _   _ _____       #       &&&@
      @&&&########       |  \/  | ___  _ __   ___  _ __   ___ | | |_ _| | | |_   _|      ########&&&@
      @&&&       #       | |\/| |/ _ \| '_ \ / _ \| '_ \ / _ \| |  | || | | | | |        #       &&&@
      @&&&   🎩  #       | |  | | (_) | | | | (_) | |_) | (_) | |  | || |_| | | |        #       &&&@
      @&&&       #       |_|  |_|\___/|_| |_|\___/| .__/ \___/|_| |___|\___/  |_|        #       &&&@
      @&&&########                                |_|                                    ########&&&@
      @&&&       #                                                                       #       &&&@
      @&&&       #                                                                       #       &&&@
      @&&&       #                                                                       #       &&&@
      @&&&########                                                                       ########&&&@
      @&&&       #                                                                       #       &&&@
      @&&&       #                                                                       #       &&&@
      @&&&       #                                                                       #       &&&@
      @&&&########                                                                       ########&&&@
      @&&&       #                                                                       #       &&&@
      @&&&       #                                                                       #       &&&@
      @&&&       #                                                                       #       &&&@
      @&&&########                                                                       ########&&&@
      @&&&       #                                                                       #       &&&@
      @&&&       #                                                                       #       &&&@
      @&&&       #                                                                       #       &&&@
      @&&&#######################################################################################&&&@
      @&&&       #       #       #       #       #       #       #       #       #       #       &&&@
      @&&&       #       #       #       #       #       #       #       #       #       #       &&&@
      @&&&       #       #       #       #       #       #       #       #       #       #       &&&@
       &&&&&&&&&&&&&&&&&&&&&&&&&&&&&&&&&&&&&&&&&&&&&&&&&&&&&&&&&&&&&&&&&&&&&&&&&&&&&&&&&&&&&&&&&&&&&
	%@@@@@@@@@@@@@@@@@@@@@@@@@@@@@@@@@@@@@@@@@@@@@@@@@@@@@@@@@@@@@@@@@@@@@@@@@@@@@@@@@@@@@@@@@%
